<svg xmlns="http://www.w3.org/2000/svg" xmlns:xlink="http://www.w3.org/1999/xlink" width="46" height="46" viewBox="0 0 46 46">
  <defs>
    <clipPath id="clip-icon_next_1">
      <rect width="46" height="46"/>
    </clipPath>
  </defs>
  <g id="icon_next_1" data-name="icon_next – 1" clip-path="url(#clip-icon_next_1)">
    <g id="Group_690" data-name="Group 690" transform="translate(-534.25 -758)">
      <circle id="Ellipse_24" data-name="Ellipse 24" cx="22.875" cy="22.875" r="22.875" transform="translate(534.25 758)" fill="#fff" opacity="0.5"/>
      <path id="Path_712" data-name="Path 712" d="M552.906,769.808a1.939,1.939,0,0,1,2.742,0l9.7,9.7a1.939,1.939,0,0,1,0,2.742l-9.7,9.7a1.939,1.939,0,0,1-2.742-2.743l8.324-8.324-8.324-8.324A1.94,1.94,0,0,1,552.906,769.808Z" transform="translate(-2)" fill="none" stroke="#666" stroke-miterlimit="10" stroke-width="1"/>
    </g>
  </g>
</svg>
